Place,Name,Sex,BirthDate,Age,Country,Equipment,Division,BodyweightKg,WeightClassKg,Squat1Kg,Squat2Kg,Squat3Kg,Best3SquatKg,Bench1Kg,Bench2Kg,Bench3Kg,Best3BenchKg,Deadlift1Kg,Deadlift2Kg,Deadlift3Kg,Best3DeadliftKg,TotalKg,Event
1,Tamar Tanami,F,2000-06-13,22,Israel,Raw,J,55.6,56,100,107.5,112.5,112.5,50,-55,57.5,57.5,115,-125,128,128,298,SBD
1,Bethany Kutz,F,2002-04-05,20,Israel,Raw,J,58.6,60,115,120,122.5,122.5,57.5,60,62.5,62.5,105,110,115,115,300,SBD
2,May David,F,1999-01-19,23,Israel,Raw,J,59.2,60,67.5,75,80,80,45,47.5,-50,47.5,92.5,97.5,-102.5,97.5,225,SBD
1,Eden Rottenberg,F,2002-04-04,20,Israel,Raw,J,72.5,75,-115,-115,115,115,55,60,-62.5,60,130,140,145,145,320,SBD
1,Nicolle Shihman,F,2002-11-17,20,Israel,Raw,J,87.4,90,75,85,92.5,92.5,40,47.5,52.5,52.5,102.5,110,120,120,265,SBD
1,Keren Breslav,F,1980-04-13,42,Israel,Raw,M1,58.2,60,67.5,75,-77.5,75,45,50,52.5,52.5,82.5,90,-95,90,217.5,SBD
1,Tal Shaish,F,1971-07-01,51,Israel,Raw,M3,59.4,60,120,125,130,130,85,90,-95,90,140,145,,145,365,SBD
1,Eden Ben Ami,F,1998-01-07,24,Israel,Raw,O,50,52,55,62.5,-70,62.5,32.5,37.5,-42.5,37.5,85,95,-100,95,195,SBD
2,Chen Reuven,F,1996-12-07,26,Israel,Raw,O,51.1,52,50,55,60,60,30,35,-40,35,65,67.5,70,70,165,SBD
1,Shira Talala,F,1994-04-21,28,Israel,Raw,O,54.5,56,110,117.5,120,120,60,65,-67.5,65,140,150,-161,150,335,SBD
2,Valeria Merzlyakova,F,1993-07-27,29,Israel,Raw,O,55.1,56,95,102.5,-110,102.5,57.5,62.5,,62.5,140,155,160.5,160.5,325.5,SBD
3,Batel Cohen,F,1992-10-06,30,Israel,Raw,O,52.6,56,-90,90,-100,90,70,72.5,-75,72.5,105,110,120,120,282.5,SBD
1,Anastasia Zinchenko,F,1985-10-24,37,Israel,Raw,O,59.2,60,115,-125.5,125.5,125.5,75.5,80,81.5,81.5,130,140,145,145,352,SBD
2,Noa Chen,F,1995-11-20,27,Israel,Raw,O,59.3,60,107.5,115,120,120,62.5,-70,-70,62.5,145,-156.5,-156.5,145,327.5,SBD
3,Marina Rafalovich,F,1988-09-22,34,Israel,Raw,O,58.7,60,90,-100,100,100,25,27.5,-30,27.5,110,125,-140,125,252.5,SBD
4,Victoria Volkov,F,1987-08-13,35,Israel,Raw,O,57.8,60,65,67.5,70,70,-40,42.5,-45,42.5,-97.5,100,-105,100,212.5,SBD
1,Lisa Halaby,F,1991-05-17,31,Israel,Raw,O,67.5,67.5,140,145,150,150,93.5,100,-101,100,165,175,-180.5,175,425,SBD
2,Valentina Galperin,F,1995-02-25,27,Israel,Raw,O,65.8,67.5,125,127.5,130,130,72.5,-77.5,-80,72.5,140,145,152.5,152.5,355,SBD
3,Miriam Amkiea,F,1995-02-13,27,Israel,Raw,O,66.7,67.5,100,105,-110,105,62.5,65,-70,65,132.5,140,-145,140,310,SBD
4,Shevi Zeff,F,1994-04-07,28,Israel,Raw,O,61.2,67.5,75,85,90,90,55,60,-65,60,90,102.5,110,110,260,SBD
5,Abigail Oz,F,1998-05-28,24,Israel,Raw,O,65,67.5,65,70,72.5,72.5,45,-50,-52.5,45,87.5,-97.5,97.5,97.5,215,SBD
1,Simcha Cohen,F,1998-07-29,24,Israel,Raw,O,68.2,75,120,125,130.5,130.5,72.5,75,-78,75,-155,162.5,170,170,375.5,SBD
2,Tamar Havshush,F,1983-09-26,39,Israel,Raw,O,75,75,80,87.5,92.5,92.5,55,60,62.5,62.5,100,105,-110,105,260,SBD
1,Michal Orlinsky,F,1987-11-20,35,Israel,Raw,O,80.7,82.5,130,135,140,140,70,75,-80,75,162.5,-170,175,175,390,SBD
2,Sapir Gerby,F,1988-12-03,34,Israel,Raw,O,76.8,82.5,110,115,-122.5,115,52.5,57.5,-60,57.5,120,130,137.5,137.5,310,SBD
1,Rima Khoury,F,1994-09-03,28,Israel,Raw,O,87.5,90,125,135,-140,135,50,57.5,60,60,120,132.5,-140,132.5,327.5,SBD
2,Ilana Bernshtein,F,1993-07-20,29,Israel,Raw,O,85.1,90,90,-100,-102.5,90,70,75,77.5,77.5,120,125,132.5,132.5,300,SBD
DQ,Hagar Lavon,F,1989-12-16,33,Israel,Raw,O,101.8,90+,-120,-125,-130,,-75,80,82.5,82.5,120,125,130,130,,SBD
1,Rotem Azran,F,2006-12-25,15,Israel,Raw,T,54.3,56,110,-120,122.5,122.5,47.5,-52.5,-52.5,47.5,117.5,125,-130,125,295,SBD
2,Ori Shabo,F,2007-05-09,15,Israel,Raw,T,53,56,55,62.5,67.5,67.5,35,-40,40,40,90,-97.5,100,100,207.5,SBD
1,Emily Rahmilov,F,2007-04-13,15,Israel,Raw,T,58,60,60,67.5,-72.5,67.5,35,40,-45,40,80,90,95,95,202.5,SBD
1,Talia Ben Abu,F,2006-06-15,16,Israel,Raw,T,66.1,67.5,80,90,97.5,97.5,55,60,65,65,122.5,135,144,144,306.5,SBD
2,Sarit Strelets,F,2006-07-23,16,Israel,Raw,T,64.1,67.5,95,-102.5,102.5,102.5,52.5,57.5,-60,57.5,125,135,143,143,303,SBD
3,Ofir Melech,F,2008-06-16,14,Israel,Raw,T,67.5,67.5,-100,100,107.5,107.5,30,35,40,40,115,125,-130,125,272.5,SBD
4,Arbel Ohayon,F,2007-11-19,15,Israel,Raw,T,66.9,67.5,-100,100,-105,100,37.5,42.5,-45,42.5,97.5,102.5,105,105,247.5,SBD
5,Mika Oron,F,2009-01-31,13,Israel,Raw,T,66.6,67.5,60,70,80,80,40,-47.5,-47.5,40,90,100,107.5,107.5,227.5,SBD
1,Bar Rubin,F,2006-07-08,16,Israel,Raw,T,70.7,75,87.5,97.5,105,105,50,52.5,-55,52.5,120,130,140,140,297.5,SBD
2,Adi Babayov,F,2007-05-28,15,Israel,Raw,T,69.5,75,100,105,107.5,107.5,52.5,-57.5,57.5,57.5,117.5,125.5,-132.5,125.5,290.5,SBD
1,Shira Frish,F,2006-03-29,16,Israel,Raw,T,77.8,82.5,92.5,100,-105,100,55,63,66,66,117.5,130,140,140,306,SBD
2,Talia Shenhav,F,2009-02-08,13,Israel,Raw,T,81.9,82.5,75,80,90,90,40,45,-50,45,95,105,112.5,112.5,247.5,SBD
3,Liri Ben Harosh,F,2009-02-22,13,Israel,Raw,T,78.5,82.5,65,-72.5,-75,65,35,37.5,-42.5,37.5,95,105,110,110,212.5,SBD
DQ,Noa Rahamim,F,2003-12-28,18,Israel,Raw,T,54.7,56,-87.5,-87.5,-87.5,,47.5,-52.5,-55,47.5,105,112.5,-115,112.5,,SBD
1,Mai Michaeli,F,2004-07-24,18,Israel,Raw,T,58.6,60,120,127.5,135,135,60,-65,-67.5,60,130,142.5,150,150,345,SBD
2,Leah Glickman,F,2005-08-31,17,Israel,Raw,T,59.7,60,100,110,117.5,117.5,55,-60,-60,55,155,165,-175.5,165,337.5,SBD
1,Agam Perez,F,2005-03-28,17,Israel,Raw,T,67.4,67.5,132.5,142.5,-148,142.5,83,85,-87.5,85,140,153.5,160,160,387.5,SBD
2,Loren Kadralin,F,2005-02-05,17,Israel,Raw,T,63.7,67.5,90,95,105,105,45,-47.5,-50,45,110,120,-130,120,270,SBD
3,Gaya Elimor,F,2005-11-23,17,Israel,Raw,T,63.5,67.5,-75,-80,80,80,57.5,60,65,65,95,100,-105,100,245,SBD
4,Naama Suissa,F,2005-10-07,17,Israel,Raw,T,61.2,67.5,65,72.5,-80,72.5,35,40,42.5,42.5,92.5,100,-105,100,215,SBD
1,Shai Itleyano,F,2004-12-08,18,Israel,Raw,T,82.2,82.5,130,140,145,145,55,60,-65,60,140,150.5,155,155,360,SBD
1,Amit Nagar,F,2000-08-18,22,Israel,Raw,J,59.7,60,,,,,60,-65.5,-65.5,60,105,115,122.5,122.5,182.5,BD
1,Liya Libovich,F,2000-03-27,22,Israel,Raw,J,81.9,82.5,,,,,73,78,82,82,135,145,155,155,237,BD
1,Anat Kaufman,F,1992-07-29,30,Israel,Raw,O,80.5,82.5,,,,,-72.5,-77.5,77.5,77.5,100,-110,-120,100,177.5,BD
1,Shir Shorer,F,2000-02-13,22,Israel,Raw,J,55.3,56,,,,,64,66,-67.5,66,,,,,66,B
1,Hana Halabi,F,1974-04-28,48,Israel,Raw,M2,66.9,67.5,,,,,-85,87.5,92.5,92.5,,,,,92.5,B
1,Ethamar Preser Beery,M,1999-06-15,23,Israel,Raw,J,66.4,67.5,122.5,127.5,-130,127.5,102.5,110,115,115,137.5,147.5,155,155,397.5,SBD
1,Yazid Darshwa,M,2002-02-22,20,Israel,Raw,J,72.6,75,-190,200,-210.5,200,143,-150.5,-150.5,143,230,255.5,-260,255.5,598.5,SBD
2,Max Berger,M,2000-06-16,22,Israel,Raw,J,74.8,75,-185,195,-200,195,120,125,132.5,132.5,225,-245,-250,225,552.5,SBD
3,Amit Shalom,M,2000-01-20,22,Israel,Raw,J,73.5,75,-175,180,190,190,-115,-120,120,120,170,180,190,190,500,SBD
4,Chen Pinto,M,2001-08-24,21,Israel,Raw,J,74.1,75,130,-142.5,-142.5,130,107.5,117.5,-122.5,117.5,172.5,190,202.5,202.5,450,SBD
5,Mishel Coria,M,1999-03-07,23,Israel,Raw,J,70.1,75,115,120,125,125,60,65,-67.5,65,140,147.5,150,150,340,SBD
1,Yam Felsenstein,M,2000-11-27,22,Israel,Raw,J,81,82.5,230,245,-260,245,145,157.5,-167.5,157.5,225,-240,-240,225,627.5,SBD
2,Adam Shamilian,M,2002-02-12,20,Israel,Raw,J,79.9,82.5,180,197.5,210,210,120,130,-135,130,220,240,-260,240,580,SBD
3,Beni Shatashvili,M,1999-08-01,23,Israel,Raw,J,79.7,82.5,175,185,195,195,132.5,135,-137.5,135,225,235,245,245,575,SBD
4,Raz Twito,M,2002-01-23,20,Israel,Raw,J,78.1,82.5,175,190,200,200,-125,-132.5,132.5,132.5,230,-250,-250,230,562.5,SBD
5,Alon Klirs,M,1999-01-30,23,Israel,Raw,J,81.4,82.5,182.5,192.5,202.5,202.5,127.5,135,-140,135,-220,220,-230,220,557.5,SBD
6,Liel Milhofer,M,2000-11-10,22,Israel,Raw,J,75.2,82.5,132.5,142.5,152.5,152.5,102.5,107.5,,107.5,190,200,210,210,470,SBD
1,Itay Hayun,M,2000-07-19,22,Israel,Raw,J,86.5,90,175,190,205,205,-125,125,-135,125,260,275,-300,275,605,SBD
2,Orel Vaknin,M,1999-12-05,23,Israel,Raw,J,87.5,90,145,152.5,160,160,-97.5,102.5,107.5,107.5,160,-170,170,170,437.5,SBD
1,Eliya Ashush,M,2001-03-28,21,Israel,Raw,J,98.4,100,197.5,215,225,225,142.5,150,157.5,157.5,255,273,283.5,283.5,666,SBD
2,Yonatan Reich,M,2000-05-06,22,Israel,Raw,J,93.2,100,240,-252.5,-252.5,240,142.5,-147.5,,142.5,260,-272.5,-277.5,260,642.5,SBD
3,Elhay Kadosh,M,2002-08-15,20,Israel,Raw,J,96.9,100,172.5,185,-200,185,140,150,-152.5,150,225,235,242.5,242.5,577.5,SBD
4,Amir Borivker,M,1999-03-21,23,Israel,Raw,J,94.9,100,152.5,165,172.5,172.5,100,105,-110,105,195,210,220,220,497.5,SBD
1,Alex Lysenko,M,2000-07-04,22,Israel,Raw,J,102,110,225,240,250,250,162.5,-170,-170,162.5,-270,285,-300,285,697.5,SBD
2,Alon Rebruh,M,2000-07-26,22,Israel,Raw,J,103.3,110,205,220,-225,220,125,135,142.5,142.5,230,250,260,260,622.5,SBD
3,Maxim Saltanovich,M,2001-07-20,21,Israel,Raw,J,107.3,110,182.5,185,192.5,192.5,115,122.5,127.5,127.5,200,-212.5,-212.5,200,520,SBD
DQ,Oren Wilf,M,1977-04-24,45,Israel,Raw,M2,67.5,67.5,157.5,162.5,-165,162.5,-105,-107.5,-107.5,,172.5,177.5,-180,177.5,,SBD
1,Yossi Kalmanovich,M,1980-12-01,42,Israel,Raw,M1,88.6,90,175,190,-195,190,140,147.5,-152.5,147.5,190,200,,200,537.5,SBD
2,Alon Kurtak,M,1977-12-01,45,Israel,Raw,M2,84.7,90,140,150,155,155,110,-115,115,115,200,215,-220,215,485,SBD
3,Shai Ruzin,M,1980-11-25,42,Israel,Raw,M1,86.7,90,120,-127.5,-127.5,120,92.5,100,-102.5,100,155,170,180,180,400,SBD
1,Itay Sagui,M,1979-07-28,43,Israel,Raw,M1,96,100,210,217.5,,217.5,130,137.5,142.5,142.5,215,225,235,235,595,SBD
2,Oren Kidar,M,1980-03-06,42,Israel,Raw,M1,94.5,100,175,187.5,200,200,135,145,155,155,175,195,-210,195,550,SBD
3,Evgeniy Mazepa,M,1973-07-01,49,Israel,Raw,M2,94.4,100,-185,-190,190,190,110,115,-120,115,180,200,-220,200,505,SBD
1,Moti Sharon,M,1980-07-03,42,Israel,Raw,M1,115.8,125,210,220,225,225,-180,182.5,-185,182.5,235,-245,245,245,652.5,SBD
1,Or Barby,M,1993-05-03,29,Israel,Raw,O,58.3,60,152.5,160,165,165,125,-130.5,-130.5,125,192.5,-205,-205,192.5,482.5,SBD
1,Shlomi Chamitzer,M,1996-09-21,26,Israel,Raw,O,67,67.5,195,202.5,-208,202.5,100,105,110,110,240,255,265,265,577.5,SBD
2,Amit Levy,M,1997-10-26,25,Israel,Raw,O,67,67.5,-165,165,-175,165,135,-142.5,-142.5,135,220,250,-261,250,550,SBD
3,Niv Davidpur,M,1994-12-09,28,Israel,Raw,O,64.7,67.5,135,142.5,-150,142.5,-82.5,90,100,100,-140,150,155,155,397.5,SBD
DQ,Dor Amar,M,1995-05-05,27,Israel,Raw,O,66.7,67.5,160,167.5,170,170,110,115,-120,115,-187.5,-200,-200,,,SBD
DQ,Yotam Shemesh,M,1998-10-09,24,Israel,Raw,O,66.9,67.5,130,137.5,-145,137.5,-110,-115,-115,,180,190,200,200,,SBD
1,Asaf Boshi,M,1995-03-02,27,Israel,Raw,O,74.7,75,235,245,-250,245,135,-140,-140,135,275,285,-287.5,285,665,SBD
2,Zaza Kharbedia,M,1998-08-26,24,Israel,Raw,O,74.8,75,215,-222.5,225,225,140,145,-148,145,250,260,265,265,635,SBD
3,Sasha Arenzon,M,1986-05-15,36,Israel,Raw,O,74.9,75,190,202.5,207.5,207.5,142.5,-147.5,147.5,147.5,265,-280.5,-282.5,265,620,SBD
4,Gilad Talker,M,1990-07-13,32,Israel,Raw,O,73.3,75,175,182.5,190,190,122.5,130,-135,130,190,207.5,220,220,540,SBD
5,Viktor Weidmann,M,1995-03-05,27,Israel,Raw,O,71.5,75,185,195,-202.5,195,105,107.5,-112.5,107.5,215,225,-242.5,225,527.5,SBD
6,Dor Grossbard,M,1993-12-17,29,Israel,Raw,O,74.1,75,155,-165,165,165,122.5,127.5,130,130,205,217.5,225,225,520,SBD
7,Gopal Risquet,M,1992-06-02,30,Israel,Raw,O,73.5,75,170,180,-187.5,180,-117.5,125,-132.5,125,205,-217.5,-217.5,205,510,SBD
8,Ofek Brener,M,1996-12-13,26,Israel,Raw,O,74.3,75,145,152.5,165,165,115,-122.5,-122.5,115,200,215,225,225,505,SBD
9,Ben Mitzner,M,1988-12-03,34,Israel,Raw,O,74.9,75,162.5,-167.5,,162.5,-110,110,-112.5,110,210,-220,222.5,222.5,495,SBD
10,Moshe Edri,M,1988-12-05,34,Israel,Raw,O,73.8,75,-140,150,160,160,105,115,120,120,170,190,-200,190,470,SBD
11,Avihai Zaro,M,1996-04-07,26,Israel,Raw,O,71.9,75,-130,130,135,135,-85,90,95,95,147.5,155,160,160,390,SBD
1,Ori Nataneli,M,1996-09-08,26,Israel,Raw,O,82.2,82.5,235,250,256,256,160,170,172.5,172.5,260,277.5,300,300,728.5,SBD
2,Jonathan Kotzer,M,1990-01-28,32,Israel,Raw,O,81.3,82.5,205,215,220,220,142.5,147.5,-152.5,147.5,255,270,-277.5,270,637.5,SBD
3,Avia Asael,M,1995-06-10,27,Israel,Raw,O,78.3,82.5,205,220,-225,220,137.5,-145,-145,137.5,255,265,-285,265,622.5,SBD
4,Ahmad Khaskia,M,1993-10-24,29,Israel,Raw,O,79.2,82.5,180,200,210,210,105,120,130,130,205,225,240,240,580,SBD
5,Shirel Tzadik,M,1992-06-02,30,Israel,Raw,O,78.3,82.5,180,187.5,-192.5,187.5,147.5,155,-160,155,215,222.5,-230,222.5,565,SBD
6,Aviel Flash,M,1992-08-07,30,Israel,Raw,O,80.4,82.5,180,192.5,197.5,197.5,107.5,112.5,-117.5,112.5,240,250,-260,250,560,SBD
7,Ben Greenberg,M,1996-12-30,25,Israel,Raw,O,81.5,82.5,180,-190,-190,180,125,127.5,132.5,132.5,240,-250,-260,240,552.5,SBD
8,Ron Ashual,M,1997-09-15,25,Israel,Raw,O,75.7,82.5,170,177.5,185,185,92.5,-100,-100,92.5,210,220,230,230,507.5,SBD
9,Itamar Katzir,M,1995-09-27,27,Israel,Raw,O,77.9,82.5,145,150,-155,150,115,-122.5,-122.5,115,190,195,-200,195,460,SBD
1,Tal Lempert,M,1998-03-26,24,Israel,Raw,O,87.3,90,215,230,-240,230,145,155,-162.5,155,200,212.5,217.5,217.5,602.5,SBD
2,Dor Sade,M,1989-12-08,33,Israel,Raw,O,89.8,90,197.5,207.5,217.5,217.5,127.5,135,-140,135,230,245,250,250,602.5,SBD
3,Tomer Cohen,M,1995-12-01,27,Israel,Raw,O,87.2,90,-172.5,177.5,185,185,125,132.5,-135,132.5,222.5,232.5,-247.5,232.5,550,SBD
4,Nadav Hayzler,M,1998-09-26,24,Israel,Raw,O,89.2,90,165,175,185,185,117.5,127.5,130,130,210,230,-250,230,545,SBD
5,Ishai Barashi,M,1995-06-13,27,Israel,Raw,O,87.7,90,150,160,170,170,122.5,130,-137.5,130,205,215,225,225,525,SBD
6,Tal Kantor,M,1998-11-26,24,Israel,Raw,O,87.5,90,-155,162.5,170,170,92.5,-100,100,100,192.5,200,207.5,207.5,477.5,SBD
DQ,Gal Osiroff,M,1987-07-09,35,Israel,Raw,O,86.9,90,175,185,-195,185,-117.5,-117.5,-117.5,,200,212.5,-227.5,212.5,,SBD
1,Elchonon Brody,M,1992-10-29,30,Israel,Raw,O,93,100,-230,230,245,245,170,175,180,180,295,315,326,326,751,SBD
2,Muhammed Deeb,M,1994-05-16,28,Israel,Raw,O,98.9,100,230,245,-255,245,145,152.5,-157.5,152.5,275,290,307.5,307.5,705,SBD
3,Tomer Meir Salame,M,1983-10-26,39,Israel,Raw,O,97.4,100,215,225,230,230,-160,162.5,-165,162.5,250,260,270,270,662.5,SBD
4,Natan Alperstein,M,1994-03-23,28,Israel,Raw,O,97.5,100,202.5,212.5,-220,212.5,-160,167.5,176,176,230,240,250,250,638.5,SBD
5,Sagi Zeharia,M,1998-12-16,24,Israel,Raw,O,97.1,100,205,220,-235,220,157.5,165,-175.5,165,210,-225,-230,210,595,SBD
6,Shlomo Rapaport,M,1994-09-04,28,Israel,Raw,O,98.6,100,150,-162.5,165,165,125,-132.5,-132.5,125,210,225,-240,225,515,SBD
1,Alex Efimov,M,1991-03-10,31,Israel,Raw,O,125,125,240,250,260,260,170,180,-185,180,240,252.5,260,260,700,SBD
2,Eric Sabag,M,1995-02-27,27,Israel,Raw,O,124.9,125,197.5,210,220,220,132.5,137.5,-142.5,137.5,242.5,260,-270,260,617.5,SBD
3,Shahar Abu,M,1998-04-20,24,Israel,Raw,O,114.7,125,155,170,185,185,130,140,150,150,240,255,-270,255,590,SBD
4,Luigi Zinn,M,1991-07-02,31,Israel,Raw,O,122.5,125,200,210,220,220,105,-112.5,-117.5,105,225,245,260,260,585,SBD
5,Yair Stark,M,1998-12-16,24,Israel,Raw,O,113.4,125,-160,170,-180,170,130,140,142.5,142.5,210,217.5,225,225,537.5,SBD
NS,Yam Ginzburg,M,2007-05-02,15,Israel,Raw,T,,,,,,,,,,,,,,,,SBD
1,Tomer Golani,M,2006-07-12,16,Israel,Raw,T,54.3,56,125,132.5,140,140,65,-72.5,72.5,72.5,140,150,155,155,367.5,SBD
2,Itamar Shnaper,M,2008-07-22,14,Israel,Raw,T,55.2,56,100,115,-125,115,60,67.5,-72.5,67.5,140,160,-170,160,342.5,SBD
3,Ronen Mordechai,M,2007-07-28,15,Israel,Raw,T,56,56,-112.5,-122.5,122.5,122.5,65,-72.5,-72.5,65,135,145,155,155,342.5,SBD
4,Sagi Moyal,M,2007-01-20,15,Israel,Raw,T,55.3,56,115,-120,120,120,60,62.5,-65,62.5,130,-135,135,135,317.5,SBD
5,Avi Abramov,M,2007-02-13,15,Israel,Raw,T,55.4,56,92.5,-102.5,-107.5,92.5,70,-77.5,-77.5,70,122.5,132.5,140,140,302.5,SBD
1,Yehonatan Haim,M,2006-10-14,16,Israel,Raw,T,60,60,-140,140,146,146,80,85,90,90,175,-185,-185,175,411,SBD
2,Tal Duev,M,2007-08-17,15,Israel,Raw,T,58.5,60,130,-142.5,145,145,80,-87.5,-87.5,80,-170,185,-193,185,410,SBD
3,Barak Alon,M,2007-02-24,15,Israel,Raw,T,59.2,60,132.5,145,150,150,75,-82.5,-82.5,75,160,170,-180,170,395,SBD
4,Noam Gabay,M,2005-12-23,16,Israel,Raw,T,59.5,60,-110,120,-135,120,80,87.5,-92.5,87.5,160,180,-190,180,387.5,SBD
5,Adiel Cohen,M,2006-04-03,16,Israel,Raw,T,59.7,60,87.5,-92.5,95,95,62.5,-67.5,-67.5,62.5,-130,135,-140,135,292.5,SBD
DQ,Shawn Hazan,M,2006-10-14,16,Israel,Raw,T,58,60,117.5,127.5,-132.5,127.5,-52.5,-60,,,157.5,162.5,170,170,,SBD
1,Yonah Weiss,M,2007-10-11,15,Israel,Raw,T,65.3,67.5,137.5,150,-162.5,150,85,-95,95,95,175,195,-209,195,440,SBD
2,Ori Nemni,M,2008-08-05,14,Israel,Raw,T,66.2,67.5,132.5,137.5,147.5,147.5,75,80,90,90,150,,160,160,397.5,SBD
3,Maor Elboim,M,2008-02-02,14,Israel,Raw,T,65.8,67.5,122.5,132.5,-142.5,132.5,80,85,90,90,162.5,172.5,-180,172.5,395,SBD
4,Yanai Azran,M,2008-09-14,14,Israel,Raw,T,62.7,67.5,107.5,-117.5,120,120,92.5,100,,100,155,170,-185,170,390,SBD
1,Omer Hahn,M,2007-01-15,15,Israel,Raw,T,75,75,-167.5,167.5,-175,167.5,112.5,-115,,112.5,220,-235,-235,220,500,SBD
2,Yuval Epstein,M,2007-02-23,15,Israel,Raw,T,73.6,75,150,-160,-170,150,100,-105,-105,100,180,190,200,200,450,SBD
3,Matan Moyal,M,2007-02-02,15,Israel,Raw,T,74.3,75,132.5,145,160,160,80,87.5,-92.5,87.5,170,180,192.5,192.5,440,SBD
4,Ron Elkes,M,2006-11-05,16,Israel,Raw,T,74.9,75,132.5,-142.5,150,150,92.5,-100,-100,92.5,-170,-175,180,180,422.5,SBD
5,Ronny Kosov,M,2008-02-20,14,Israel,Raw,T,73.1,75,-115,130,-140,130,-105,-105,105,105,170,185,-195,185,420,SBD
6,Raz Moskovitch,M,2007-12-14,15,Israel,Raw,T,73.9,75,-145,150,-162.5,150,-75,80,-87.5,80,165,180,-185,180,410,SBD
7,Daniel Farkash,M,2006-09-22,16,Israel,Raw,T,74.4,75,-132.5,132.5,-140,132.5,92.5,-97.5,97.5,97.5,-150,155,-170,155,385,SBD
8,Ariel Amirov,M,2008-06-08,14,Israel,Raw,T,73.3,75,120,125,132.5,132.5,60,67.5,-72.5,67.5,145,-152.5,,145,345,SBD
DQ,Abdelrahman Baidun,M,2006-08-10,16,Israel,Raw,T,75,75,-170,-170,-175,,-100,-105,107.5,107.5,150,160,175,175,,SBD
1,Ilay Benita,M,2005-12-25,16,Israel,Raw,T,79.8,82.5,205,220,-230,220,150,-157.5,-165,150,225,235,-240,235,605,SBD
2,Yarin Goldshtein,M,2006-09-20,16,Israel,Raw,T,81.9,82.5,155,165,-177.5,165,140,150.5,-165.5,150.5,185,195,200,200,515.5,SBD
3,Shahaf Tal,M,2006-03-11,16,Israel,Raw,T,75.9,82.5,170,185,-192.5,185,105,115,-120,115,190,205,215,215,515,SBD
4,Yehonatan Ofer,M,2007-02-25,15,Israel,Raw,T,75.4,82.5,162.5,175,185,185,100,105,107.5,107.5,192.5,207.5,212.5,212.5,505,SBD
5,Ido Shaham,M,2006-04-05,16,Israel,Raw,T,82.5,82.5,155,167.5,170,170,125,132.5,-137.5,132.5,170,182.5,-195,182.5,485,SBD
6,Amit Segev,M,2006-01-31,16,Israel,Raw,T,81.5,82.5,137.5,147.5,155,155,92.5,100,105,105,195,210,-215,210,470,SBD
7,Kfir Yoel,M,2007-03-01,15,Israel,Raw,T,79.6,82.5,120,127.5,132.5,132.5,72.5,80,-82.5,80,170,180,187.5,187.5,400,SBD
8,Koren Aton,M,2006-11-16,16,Israel,Raw,T,81.4,82.5,130,140,-150,140,85,92.5,97.5,97.5,-155,155,-170,155,392.5,SBD
1,Roe Kasser,M,2006-10-24,16,Israel,Raw,T,88.7,90,155,-167.5,167.5,167.5,100,-112.5,112.5,112.5,202.5,217.5,-222.5,217.5,497.5,SBD
2,Ariel Leyzerovitch,M,2007-08-07,15,Israel,Raw,T,89.5,90,125,-135,137.5,137.5,87.5,-95,100,100,215,225,-240,225,462.5,SBD
3,Omer Dekel,M,2006-06-01,16,Israel,Raw,T,83.8,90,130,140,150,150,-90,100,-105,100,182.5,197.5,202.5,202.5,452.5,SBD
1,Ariel Dvir,M,2006-06-05,16,Israel,Raw,T,99.6,100,192.5,207,213,213,100,110,-115,110,225,240,250,250,573,SBD
2,Alon Adi,M,2007-05-04,15,Israel,Raw,T,93.3,100,175,182.5,,182.5,77.5,-85,-85,77.5,180,190,-200,190,450,SBD
3,Or Mishali,M,2007-12-07,15,Israel,Raw,T,94.5,100,150,165,177.5,177.5,75,82.5,87.5,87.5,160,177.5,-190,177.5,442.5,SBD
NS,Roey Matyash,M,2005-10-09,17,Israel,Raw,T,,,,,,,,,,,,,,,,SBD
1,Yaniv Greenberg,M,2004-12-06,18,Israel,Raw,T,55.6,56,100,105,-110,105,-62.5,67.5,-72.5,67.5,105,115,127.5,127.5,300,SBD
1,Alon Kapahs,M,2005-03-07,17,Israel,Raw,T,59.9,60,130,142.5,150,150,85,95,97.5,97.5,167.5,182.5,193,193,440.5,SBD
2,Itay Sanker,M,2004-11-15,18,Israel,Raw,T,59.8,60,-127.5,-127.5,132.5,132.5,95,100,-105,100,140,-155,-160,140,372.5,SBD
1,Yuval Ephrath,M,2005-06-29,17,Israel,Raw,T,67.1,67.5,177.5,187.5,196,196,117.5,122.5,125,125,210,225,235,235,556,SBD
2,Sagiv Mushkatel,M,2004-09-15,18,Israel,Raw,T,66.9,67.5,177.5,185,-196.5,185,110,-120,-120,110,230,-252.5,-252.5,230,525,SBD
3,Segev Biton,M,2004-01-11,18,Israel,Raw,T,66,67.5,177.5,186,195.5,195.5,90,95,100,100,205,217.5,227.5,227.5,523,SBD
4,Itamar Zarbiv,M,2004-10-09,18,Israel,Raw,T,67.3,67.5,177.5,-185,-188,177.5,110,115,-117.5,115,190,200,-210,200,492.5,SBD
5,Robert Shabot,M,2005-02-04,17,Israel,Raw,T,60.4,67.5,160,-167.5,-167.5,160,97.5,100,-102.5,100,-220,-225,225,225,485,SBD
6,Amir Hamsi,M,2005-04-19,17,Israel,Raw,T,67.2,67.5,150,165,-170,165,117.5,-125,-125.5,117.5,180,190,-195,190,472.5,SBD
7,Omer Libfeld,M,2004-01-29,18,Israel,Raw,T,67.4,67.5,145,160,-167.5,160,100,110,-120,110,200,-215,-230,200,470,SBD
8,Leon Cohen,M,2004-09-08,18,Israel,Raw,T,65.8,67.5,130,135,-145,135,82.5,87.5,92.5,92.5,160,167.5,177.5,177.5,405,SBD
1,Yosaf Cohen,M,2005-02-13,17,Israel,Raw,T,75,75,182.5,192.5,-197.5,192.5,135,142.5,-146,142.5,225,237.5,247.5,247.5,582.5,SBD
2,Orr Sela,M,2004-08-27,18,Israel,Raw,T,73,75,160,175,-180,175,110,115,-120,115,240,255,-273,255,545,SBD
3,Gil Vidal,M,2004-01-13,18,Israel,Raw,T,74.4,75,165,172.5,180,180,125,-132.5,132.5,132.5,-230,-230,230,230,542.5,SBD
4,Ethan Golov,M,2005-12-18,17,Israel,Raw,T,74.8,75,165,180,187.5,187.5,117.5,127.5,-132.5,127.5,180,195,205,205,520,SBD
5,Roy Yomtovian,M,2003-02-07,19,Israel,Raw,T,69.5,75,150,160,165,165,82.5,-87.5,-87.5,82.5,205,222.5,-230,222.5,470,SBD
6,Omer Baron,M,2005-11-12,17,Israel,Raw,T,74.8,75,175,187.5,-193,187.5,60,,,60,190,200,205,205,452.5,SBD
7,Shalev Zur,M,2004-12-16,18,Israel,Raw,T,71.9,75,130,140,155,155,90,95,-100,95,-165,180,-200,180,430,SBD
8,Maor Dayari,M,2005-11-12,17,Israel,Raw,T,74.4,75,145,-152.5,152.5,152.5,87.5,92.5,-97.5,92.5,160,180,-200,180,425,SBD
9,Tomer Gredinger,M,2004-12-24,17,Israel,Raw,T,73.9,75,120,127.5,-132.5,127.5,85,90,-97.5,90,-155,-155,155,155,372.5,SBD
1,Ittai Levin,M,2004-10-19,18,Israel,Raw,T,80.6,82.5,195,205,212.5,212.5,147.5,157.5,163,163,275,290,-300.5,290,665.5,SBD
2,Liron Cohen,M,2003-04-27,19,Israel,Raw,T,79.8,82.5,205,-220.5,220.5,220.5,145,-150,-150,145,230,245,-255,245,610.5,SBD
3,Max Bocan,M,2005-11-24,17,Israel,Raw,T,80.1,82.5,170,180,-190,180,130,142.5,-150,142.5,190,207.5,222.5,222.5,545,SBD
4,Tzuf Moshkovitz,M,2005-03-01,17,Israel,Raw,T,81.7,82.5,162.5,172.5,182.5,182.5,120,127.5,-135,127.5,180,192.5,200,200,510,SBD
5,Dvir Shani,M,2004-04-15,18,Israel,Raw,T,80.8,82.5,-145,157.5,170,170,92.5,100,105,105,175,-187.5,-190,175,450,SBD
6,Oren Lichtenstein,M,2003-06-02,19,Israel,Raw,T,81,82.5,-142.5,-147.5,150,150,90,-95,,90,187.5,205,-215,205,445,SBD
7,Shailee Alalouf,M,2003-11-18,19,Israel,Raw,T,79.5,82.5,127.5,137.5,-147.5,137.5,85,95,100,100,182.5,192.5,-195,192.5,430,SBD
8,Oriya Barzilay,M,2004-12-08,18,Israel,Raw,T,78.4,82.5,122.5,-142.5,142.5,142.5,90,100,-107.5,100,150,162.5,172.5,172.5,415,SBD
1,Abdallah Barakat,M,2003-05-21,19,Israel,Raw,T,85.5,90,205,222.5,-227,222.5,-135,135,140,140,190,205,212.5,212.5,575,SBD
2,Daniel Tkach,M,2003-11-20,19,Israel,Raw,T,90,90,182.5,192.5,200,200,135,140,-145,140,200,220,-237.5,220,560,SBD
3,Yuval Rosenberg,M,2005-06-13,17,Israel,Raw,T,89.8,90,175,185,-195,185,-95,95,-100,95,235,251,-260,251,531,SBD
4,Yam Levi,M,2005-12-07,17,Israel,Raw,T,89.3,90,165,175,182.5,182.5,105,-115,-122.5,105,210,227.5,235,235,522.5,SBD
5,Daniel Mishali,M,2004-09-07,18,Israel,Raw,T,84.9,90,170,-180,182.5,182.5,100,105,-107.5,105,210,-220,-227.5,210,497.5,SBD
6,Shai Mekayten,M,2003-10-24,19,Israel,Raw,T,88.9,90,160,-185,-197.5,160,107.5,117.5,125,125,165,-190,200,200,485,SBD
DQ,Noam Yaroslavtsev,M,2005-10-05,17,Israel,Raw,T,88.1,90,180,-190,-190,180,105,115,-117.5,115,-230,-240,-240,,,SBD
1,Noam Dekel,M,2004-05-11,18,Israel,Raw,T,97.3,100,217.5,230,240,240,137.5,145,-150,145,272.5,290.5,300,300,685,SBD
2,Shlomo Sin Shalom,M,2004-01-30,18,Israel,Raw,T,98.6,100,200,215,222.5,222.5,135,142.5,147.5,147.5,230,245,-260,245,615,SBD
3,Joseph Pavzner,M,2005-03-30,17,Israel,Raw,T,92.8,100,195,210,-215,210,130,140,-150,140,215,235,-250,235,585,SBD
4,Harel Sinay,M,2005-10-13,17,Israel,Raw,T,98.1,100,160,172.5,-180,172.5,120,127.5,-132.5,127.5,-185,200,-215,200,500,SBD
DQ,Yair Karmon,M,2005-04-14,17,Israel,Raw,T,99.3,100,180,-190,190,190,-120,-127.5,-127.5,,180,210,-230,210,,SBD
1,Nikita Grankin,M,2003-01-23,19,Israel,Raw,T,111.6,125,-212.5,212.5,230,230,145,152.5,-155,152.5,215,230,250,250,632.5,SBD
2,Ofir Bochnik,M,2004-12-09,18,Israel,Raw,T,110.4,125,175,190,200,200,107.5,115,-120,115,207.5,225,240,240,555,SBD
1,Yaniv Levitin,M,2002-05-02,20,Israel,Raw,J,89,90,,,,,-142.5,-145,145,145,-230,242.5,255,255,400,BD
2,Gal Avivi,M,1999-09-05,23,Israel,Raw,J,89.4,90,,,,,-132.5,140,145,145,215,227.5,235,235,380,BD
1,Oleksandr Aleksieienko,M,1990-03-08,32,Israel,Raw,O,80.9,82.5,,,,,155,160,-162.5,160,275,-285,-285,275,435,BD
1,Noam Hoota,M,2008-01-17,14,Israel,Raw,T,58.6,60,,,,,87.5,-95,-100.5,87.5,-165,172.5,180,180,267.5,BD
1,Ron Zilberg,M,2005-05-29,17,Israel,Raw,T,59.5,60,,,,,85,87.5,-90,87.5,165,-172.5,-175,165,252.5,BD
1,Noam Shtaynberger,M,2005-05-23,17,Israel,Raw,T,74.3,75,,,,,117.5,127.5,132.5,132.5,155,-170,-170,155,287.5,BD
1,Omer Yaakov,M,1988-04-27,34,Israel,Raw,O,63.6,67.5,,,,,-127.5,132.5,-136,132.5,,,,,132.5,B
2,Ofir Dadon,M,1998-09-09,24,Israel,Raw,O,67.5,67.5,,,,,110,-115,-115,110,,,,,110,B
1,Maor Shuminov,M,1991-04-04,31,Israel,Raw,O,98.7,100,,,,,170,180.5,185,185,,,,,185,B
1,Ori Schechtman,M,2006-12-23,15,Israel,Raw,T,55.1,56,,,,,-95,-97.5,97.5,97.5,,,,,97.5,B
2,Noam Sokolov,M,2008-06-26,14,Israel,Raw,T,56,56,,,,,77.5,-82.5,82.5,82.5,,,,,82.5,B
3,Omer Slav,M,2007-08-04,15,Israel,Raw,T,55.2,56,,,,,72.5,77.5,80.5,80.5,,,,,80.5,B
1,Adir Dabush,M,2007-02-04,15,Israel,Raw,T,72.8,75,,,,,118,122,-126,122,,,,,122,B
2,Roi David Pur,M,2007-11-09,15,Israel,Raw,T,74.9,75,,,,,107.5,-115,115,115,,,,,115,B
1,Bar Shapira,M,2007-12-21,14,Israel,Raw,T,96.3,100,,,,,120,-125,127.5,127.5,,,,,127.5,B
1,Yegor Voloshin,M,2003-12-13,19,Israel,Raw,T,89.8,90,,,,,-157.5,165,-170.5,165,,,,,165,B
DQ,Ido Ben Kasus,M,2005-05-25,17,Israel,Raw,T,84.6,90,,,,,-115,-120,-120,,,,,,,B
1,Doron Goldin,M,1973-11-07,49,Israel,Raw,M2,84.1,90,,,,,,,,,170,185,-195,185,185,D
1,Daniel Volodarski,M,1998-04-21,24,Israel,Raw,O,105.8,110,,,,,,,,,290,312.5,317.5,317.5,317.5,D
1,Shalev Galland,M,2008-10-14,14,Israel,Raw,T,54.5,56,,,,,,,,,120,130,-140,130,130,D
1,Amit Ohana,M,2006-11-21,16,Israel,Raw,T,57.1,60,,,,,,,,,155,-165,-165,155,155,D
1,Ziv Weinstein,M,2005-05-25,17,Israel,Raw,T,67.4,67.5,,,,,,,,,-190,200,-210,200,200,D
